%YAML 1.1
%TAG !u! tag:unity3d.com,2011:
--- !u!114 &11400000
MonoBehaviour:
  m_ObjectHideFlags: 0
  m_PrefabParentObject: {fileID: 0}
  m_PrefabInternal: {fileID: 0}
  m_GameObject: {fileID: 0}
  m_Enabled: 1
  m_EditorHideFlags: 0
  m_Script: {fileID: 11500000, guid: c814a94a29218440c94aba9bced95679, type: 3}
  m_Name: Mantle_Style_Playground
  m_EditorClassIdentifier: 
  TopMaterial:
  - mainMaterial: {fileID: 2100000, guid: ed0efc58f16a557448e935f5c3496099, type: 2}
    secondaryMaterial: {fileID: 0}
  topUvMethod: 1
  includeSides: 1
  SideMaterial:
  - mainMaterial: {fileID: 2100000, guid: ed0efc58f16a557448e935f5c3496099, type: 2}
    secondaryMaterial: {fileID: 0}
  sideUvMethod: 1
  minSideHeight: 0.25
  maxSideHeight: 0.27
  imageOverlayMethod: 0
  bypassSmallAreas: 0
  minAreaToFillSqrMeters: 0
  TerrainFill: []
  TerrainEdge: []
