# 
# Wavefront material file
# Created in RealityCapture v1.0.2
# www.capturingreality.com
# 


newmtl Aaron_project_0000000_Material_u1_v1
Ka 1 1 1
Kd 1 1 1
d 1
Ns 0
illum 1
map_Kd Aaron_project_u1_v1.jpeg
