%YAML 1.1
%TAG !u! tag:unity3d.com,2011:
--- !u!114 &11400000
MonoBehaviour:
  m_ObjectHideFlags: 0
  m_PrefabParentObject: {fileID: 0}
  m_PrefabInternal: {fileID: 0}
  m_GameObject: {fileID: 0}
  m_Enabled: 1
  m_EditorHideFlags: 0
  m_Script: {fileID: 11500000, guid: 3c49d36a41e324748aac7111fa300a94, type: 3}
  m_Name: Eltnam_DataSource
  m_EditorClassIdentifier: 
  customDataOverlays: []
  mapService: 3
  overlayImageService: 0
  overlayImageZoomLevel: 17
  terrainHeightService: 0
  cacheIsEnabled: 1
  cacheExpires: 0
  startingDownloadThreads: 64
  tileTimeoutSeconds: 30
  tileRefreshRate: 64
