%YAML 1.1
%TAG !u! tag:unity3d.com,2011:
--- !u!114 &11400000
MonoBehaviour:
  m_ObjectHideFlags: 0
  m_PrefabParentObject: {fileID: 0}
  m_PrefabInternal: {fileID: 0}
  m_GameObject: {fileID: 0}
  m_Enabled: 1
  m_EditorHideFlags: 0
  m_Script: {fileID: 11500000, guid: 9490ec95a2e8e4cacb2a994e24b97045, type: 3}
  m_Name: Eltnam_Demo (MantleArea)
  m_EditorClassIdentifier: 
  LatLng: 40.702833 -74.013125
  Description: Lower Manhattan
  zoomLevel: 17
  tilesNorthToSouth: 5
  tilesEastToWest: 5
  worldOrigin: {x: 0, y: 0, z: 0}
  worldOffset: {x: 0, y: 0, z: -0.022000007}
  dataSource: {fileID: 11400000, guid: 89c4f00ea0a6941f9b8118bc13c0db4c, type: 2}
  TerrainTheme: {fileID: 11400000, guid: 625d93f866b0540f0bc02a6b64ffe482, type: 2}
  autoSelectRenderer: 1
  rendererType: 0
  noRenderUntilCompletion: 1
  includeCameraDrone: 0
  doMakeBuildingsStatic: 0
  meshCombineStaticPrefabs: 0
  sceneViewDebugMode: 0
