%YAML 1.1
%TAG !u! tag:unity3d.com,2011:
--- !u!114 &11400000
MonoBehaviour:
  m_ObjectHideFlags: 0
  m_PrefabParentObject: {fileID: 0}
  m_PrefabInternal: {fileID: 0}
  m_GameObject: {fileID: 0}
  m_Enabled: 1
  m_EditorHideFlags: 0
  m_Script: {fileID: 11500000, guid: c814a94a29218440c94aba9bced95679, type: 3}
  m_Name: Mantle_Style_Cemetery
  m_EditorClassIdentifier: 
  TopMaterial:
  - mainMaterial: {fileID: 2100000, guid: 100a6aee9ef681249ab388ca5f6acadb, type: 2}
    secondaryMaterial: {fileID: 0}
  topUvMethod: 1
  includeSides: 0
  SideMaterial:
  - mainMaterial: {fileID: 2100000, guid: 100a6aee9ef681249ab388ca5f6acadb, type: 2}
    secondaryMaterial: {fileID: 0}
  sideUvMethod: 1
  minSideHeight: 0.2
  maxSideHeight: 0.2
  imageOverlayMethod: 0
  bypassSmallAreas: 0
  minAreaToFillSqrMeters: 0
  TerrainFill:
  - Include: 1
    prefab: {fileID: 1000013140403876, guid: 709a2d4f5d4a34b3e8a976cbc7fb56ab, type: 2}
    proceduralScaling: 0
    isGeotropic: 0
    minScale: {x: 1, y: 1, z: 1}
    maxScale: {x: 1, y: 1, z: 1}
    numberPerSquare100Meters: 500
    placementNoiseMeters: 0
    rotationRandom: 0
    placedInRows: 0
    allowOverhang: 0
  - Include: 1
    prefab: {fileID: 1000013140403876, guid: 709a2d4f5d4a34b3e8a976cbc7fb56ab, type: 2}
    proceduralScaling: 0
    isGeotropic: 0
    minScale: {x: 1, y: 1, z: 1}
    maxScale: {x: 1, y: 1, z: 1}
    numberPerSquare100Meters: 500
    placementNoiseMeters: 0
    rotationRandom: 0
    placedInRows: 0
    allowOverhang: 0
  TerrainEdge:
  - Include: 1
    prefab: {fileID: 1000010833750646, guid: 2e0436bb101ff478cab71b37f352e367, type: 2}
    proceduralScaling: 0
    isGeotropic: 0
    minScale: {x: 1, y: 1, z: 1}
    maxScale: {x: 1, y: 1, z: 1}
    onTerrain: 0100000002000000
    metersGap: 0
    metersFromEdge: 0
    placementNoiseMeters: 0
    metersWidthMargin: 0
    chanceOfSpawn: 100
    rotationType: 0
    ignoreLeftSide: 0
    ignoreRightSide: 0
