%YAML 1.1
%TAG !u! tag:unity3d.com,2011:
--- !u!114 &11400000
MonoBehaviour:
  m_ObjectHideFlags: 0
  m_PrefabParentObject: {fileID: 0}
  m_PrefabInternal: {fileID: 0}
  m_GameObject: {fileID: 0}
  m_Enabled: 1
  m_EditorHideFlags: 0
  m_Script: {fileID: 11500000, guid: c814a94a29218440c94aba9bced95679, type: 3}
  m_Name: Mantle_Style_Garden
  m_EditorClassIdentifier: 
  TopMaterial:
  - mainMaterial: {fileID: 2100000, guid: b409f7091170f43228c8ecad8a46e7a1, type: 2}
    secondaryMaterial: {fileID: 0}
  topUvMethod: 1
  includeSides: 0
  SideMaterial:
  - mainMaterial: {fileID: 2100000, guid: 100a6aee9ef681249ab388ca5f6acadb, type: 2}
    secondaryMaterial: {fileID: 0}
  sideUvMethod: 1
  minSideHeight: 0.2
  maxSideHeight: 0.25
  imageOverlayMethod: 0
  bypassSmallAreas: 0
  minAreaToFillSqrMeters: 0
  TerrainFill:
  - Include: 1
    prefab: {fileID: 1000010121809766, guid: 9495d1111a35449bf82faca7cb3253cf, type: 2}
    proceduralScaling: 1
    isGeotropic: 0
    minScale: {x: 0.2, y: 0.2, z: 0.2}
    maxScale: {x: 0.5, y: 0.5, z: 0.5}
    numberPerSquare100Meters: 500
    placementNoiseMeters: 2
    rotationRandom: 1
    placedInRows: 0
    allowOverhang: 0
  - Include: 1
    prefab: {fileID: 121498, guid: 66ec9e7b741394d5f9d61453c640d77a, type: 2}
    proceduralScaling: 1
    isGeotropic: 0
    minScale: {x: 1.5, y: 1.5, z: 1.5}
    maxScale: {x: 2, y: 2, z: 2}
    numberPerSquare100Meters: 1000
    placementNoiseMeters: 0
    rotationRandom: 1
    placedInRows: 0
    allowOverhang: 0
  TerrainEdge:
  - Include: 1
    prefab: {fileID: 121498, guid: 66ec9e7b741394d5f9d61453c640d77a, type: 2}
    proceduralScaling: 3
    isGeotropic: 0
    minScale: {x: 1.5, y: 1.5, z: 1.5}
    maxScale: {x: 2, y: 2, z: 2}
    onTerrain: 0100000002000000
    metersGap: 0
    metersFromEdge: 0
    placementNoiseMeters: 0
    metersWidthMargin: 0
    chanceOfSpawn: 100
    rotationType: 2
    ignoreLeftSide: 0
    ignoreRightSide: 0
