%YAML 1.1
%TAG !u! tag:unity3d.com,2011:
--- !u!1001 &100100000
Prefab:
  m_ObjectHideFlags: 1
  serializedVersion: 2
  m_Modification:
    m_TransformParent: {fileID: 0}
    m_Modifications: []
    m_RemovedComponents: []
  m_ParentPrefab: {fileID: 0}
  m_RootGameObject: {fileID: 1000012177006236}
  m_IsPrefabParent: 1
--- !u!1 &1000011650050742
GameObject:
  m_ObjectHideFlags: 0
  m_PrefabParentObject: {fileID: 0}
  m_PrefabInternal: {fileID: 100100000}
  serializedVersion: 5
  m_Component:
  - component: {fileID: 4000010011397992}
  - component: {fileID: 33000011958955330}
  - component: {fileID: 23000010671952770}
  - component: {fileID: 135000010174418352}
  m_Layer: 0
  m_Name: e_hp_hab_02
  m_TagString: Untagged
  m_Icon: {fileID: 0}
  m_NavMeshLayer: 0
  m_StaticEditorFlags: 0
  m_IsActive: 1
--- !u!1 &1000012177006236
GameObject:
  m_ObjectHideFlags: 0
  m_PrefabParentObject: {fileID: 0}
  m_PrefabInternal: {fileID: 100100000}
  serializedVersion: 5
  m_Component:
  - component: {fileID: 4000010349827632}
  - component: {fileID: 205000013678864234}
  - component: {fileID: 114000010708272212}
  m_Layer: 0
  m_Name: E_Balloon02
  m_TagString: Untagged
  m_Icon: {fileID: 0}
  m_NavMeshLayer: 0
  m_StaticEditorFlags: 0
  m_IsActive: 1
--- !u!1 &1000012724470770
GameObject:
  m_ObjectHideFlags: 0
  m_PrefabParentObject: {fileID: 0}
  m_PrefabInternal: {fileID: 100100000}
  serializedVersion: 5
  m_Component:
  - component: {fileID: 4000013553980504}
  - component: {fileID: 33000010054267102}
  - component: {fileID: 23000011101327166}
  - component: {fileID: 135000013035914300}
  m_Layer: 0
  m_Name: e_lp_hab_02
  m_TagString: Untagged
  m_Icon: {fileID: 0}
  m_NavMeshLayer: 0
  m_StaticEditorFlags: 0
  m_IsActive: 1
--- !u!4 &4000010011397992
Transform:
  m_ObjectHideFlags: 1
  m_PrefabParentObject: {fileID: 0}
  m_PrefabInternal: {fileID: 100100000}
  m_GameObject: {fileID: 1000011650050742}
  m_LocalRotation: {x: 0, y: -0, z: -0, w: 1}
  m_LocalPosition: {x: -0, y: 0.027772626, z: 0}
  m_LocalScale: {x: 1, y: 1, z: 1}
  m_Children: []
  m_Father: {fileID: 4000010349827632}
  m_RootOrder: 0
  m_LocalEulerAnglesHint: {x: 0, y: 0, z: 0}
--- !u!4 &4000010349827632
Transform:
  m_ObjectHideFlags: 1
  m_PrefabParentObject: {fileID: 0}
  m_PrefabInternal: {fileID: 100100000}
  m_GameObject: {fileID: 1000012177006236}
  m_LocalRotation: {x: 0, y: 0, z: 0, w: 1}
  m_LocalPosition: {x: 0, y: 0, z: 0}
  m_LocalScale: {x: 1, y: 1, z: 1}
  m_Children:
  - {fileID: 4000010011397992}
  - {fileID: 4000013553980504}
  m_Father: {fileID: 0}
  m_RootOrder: 0
  m_LocalEulerAnglesHint: {x: 0, y: 0, z: 0}
--- !u!4 &4000013553980504
Transform:
  m_ObjectHideFlags: 1
  m_PrefabParentObject: {fileID: 0}
  m_PrefabInternal: {fileID: 100100000}
  m_GameObject: {fileID: 1000012724470770}
  m_LocalRotation: {x: 0, y: -0, z: -0, w: 1}
  m_LocalPosition: {x: -0, y: 0.027772626, z: 0}
  m_LocalScale: {x: 1, y: 1, z: 1}
  m_Children: []
  m_Father: {fileID: 4000010349827632}
  m_RootOrder: 1
  m_LocalEulerAnglesHint: {x: 0, y: 0, z: 0}
--- !u!23 &23000010671952770
MeshRenderer:
  m_ObjectHideFlags: 1
  m_PrefabParentObject: {fileID: 0}
  m_PrefabInternal: {fileID: 100100000}
  m_GameObject: {fileID: 1000011650050742}
  m_Enabled: 1
  m_CastShadows: 1
  m_ReceiveShadows: 1
  m_MotionVectors: 1
  m_LightProbeUsage: 1
  m_ReflectionProbeUsage: 1
  m_Materials:
  - {fileID: 2100000, guid: a1668169f1f0d7d4a8508f337771dd56, type: 2}
  - {fileID: 2100000, guid: b11dfc9d09dd3b041a7b12ed83b30537, type: 2}
  - {fileID: 2100000, guid: 5dcd70f172f7c4d4a96bfb55d4b0000d, type: 2}
  - {fileID: 2100000, guid: a06d43f2d43340948b31904366e2ff87, type: 2}
  - {fileID: 2100000, guid: 4ebbd50dc1785454c8b55b1298c04b22, type: 2}
  - {fileID: 2100000, guid: c29c89661a67570418e766fb8c3acc79, type: 2}
  m_StaticBatchInfo:
    firstSubMesh: 0
    subMeshCount: 0
  m_StaticBatchRoot: {fileID: 0}
  m_ProbeAnchor: {fileID: 0}
  m_LightProbeVolumeOverride: {fileID: 0}
  m_ScaleInLightmap: 1
  m_PreserveUVs: 0
  m_IgnoreNormalsForChartDetection: 0
  m_ImportantGI: 0
  m_SelectedEditorRenderState: 3
  m_MinimumChartSize: 4
  m_AutoUVMaxDistance: 0.5
  m_AutoUVMaxAngle: 89
  m_LightmapParameters: {fileID: 0}
  m_SortingLayerID: 0
  m_SortingOrder: 0
--- !u!23 &23000011101327166
MeshRenderer:
  m_ObjectHideFlags: 1
  m_PrefabParentObject: {fileID: 0}
  m_PrefabInternal: {fileID: 100100000}
  m_GameObject: {fileID: 1000012724470770}
  m_Enabled: 1
  m_CastShadows: 1
  m_ReceiveShadows: 1
  m_MotionVectors: 1
  m_LightProbeUsage: 1
  m_ReflectionProbeUsage: 1
  m_Materials:
  - {fileID: 2100000, guid: a1668169f1f0d7d4a8508f337771dd56, type: 2}
  - {fileID: 2100000, guid: b11dfc9d09dd3b041a7b12ed83b30537, type: 2}
  - {fileID: 2100000, guid: 5dcd70f172f7c4d4a96bfb55d4b0000d, type: 2}
  - {fileID: 2100000, guid: a06d43f2d43340948b31904366e2ff87, type: 2}
  - {fileID: 2100000, guid: 4ebbd50dc1785454c8b55b1298c04b22, type: 2}
  - {fileID: 2100000, guid: c29c89661a67570418e766fb8c3acc79, type: 2}
  m_StaticBatchInfo:
    firstSubMesh: 0
    subMeshCount: 0
  m_StaticBatchRoot: {fileID: 0}
  m_ProbeAnchor: {fileID: 0}
  m_LightProbeVolumeOverride: {fileID: 0}
  m_ScaleInLightmap: 1
  m_PreserveUVs: 0
  m_IgnoreNormalsForChartDetection: 0
  m_ImportantGI: 0
  m_SelectedEditorRenderState: 3
  m_MinimumChartSize: 4
  m_AutoUVMaxDistance: 0.5
  m_AutoUVMaxAngle: 89
  m_LightmapParameters: {fileID: 0}
  m_SortingLayerID: 0
  m_SortingOrder: 0
--- !u!33 &33000010054267102
MeshFilter:
  m_ObjectHideFlags: 1
  m_PrefabParentObject: {fileID: 0}
  m_PrefabInternal: {fileID: 100100000}
  m_GameObject: {fileID: 1000012724470770}
  m_Mesh: {fileID: 4300002, guid: 006ddbd5ae2c94e4a9267ba551f46741, type: 3}
--- !u!33 &33000011958955330
MeshFilter:
  m_ObjectHideFlags: 1
  m_PrefabParentObject: {fileID: 0}
  m_PrefabInternal: {fileID: 100100000}
  m_GameObject: {fileID: 1000011650050742}
  m_Mesh: {fileID: 4300000, guid: 006ddbd5ae2c94e4a9267ba551f46741, type: 3}
--- !u!114 &114000010708272212
MonoBehaviour:
  m_ObjectHideFlags: 1
  m_PrefabParentObject: {fileID: 0}
  m_PrefabInternal: {fileID: 100100000}
  m_GameObject: {fileID: 1000012177006236}
  m_Enabled: 1
  m_EditorHideFlags: 0
  m_Script: {fileID: 11500000, guid: de6239ac302f4400e87d35d6cf4e7da5, type: 3}
  m_Name: 
  m_EditorClassIdentifier: 
  autoStart: 0
  minWaitSecs: 0.5
  maxWaitSecs: 3
  altitude: 0.1
  speedMin: 0.1
  speedMax: 0.1
  motionStyle: 1
  animateTurns: 0
  turnSpeed: 0.5
  sampleDistance: 5
  isBlocked: 0
  TraversableRoadTypes: 
  vehicleBehaviour: 1
  useRandomBodyColor: 1
  useRandomWheelColor: 0
  useRandomScreenColor: 0
  useRandomRimColor: 0
--- !u!135 &135000010174418352
SphereCollider:
  m_ObjectHideFlags: 1
  m_PrefabParentObject: {fileID: 0}
  m_PrefabInternal: {fileID: 100100000}
  m_GameObject: {fileID: 1000011650050742}
  m_Material: {fileID: 0}
  m_IsTrigger: 0
  m_Enabled: 1
  serializedVersion: 2
  m_Radius: 12.6
  m_Center: {x: 0, y: 189.8, z: 0}
--- !u!135 &135000013035914300
SphereCollider:
  m_ObjectHideFlags: 1
  m_PrefabParentObject: {fileID: 0}
  m_PrefabInternal: {fileID: 100100000}
  m_GameObject: {fileID: 1000012724470770}
  m_Material: {fileID: 0}
  m_IsTrigger: 0
  m_Enabled: 1
  serializedVersion: 2
  m_Radius: 12.6
  m_Center: {x: 0, y: 189.8, z: 0}
--- !u!205 &205000013678864234
LODGroup:
  m_ObjectHideFlags: 1
  m_PrefabParentObject: {fileID: 0}
  m_PrefabInternal: {fileID: 100100000}
  m_GameObject: {fileID: 1000012177006236}
  serializedVersion: 2
  m_LocalReferencePoint: {x: 0, y: 187.31873, z: 0}
  m_Size: 35.877808
  m_FadeMode: 0
  m_AnimateCrossFading: 0
  m_LODs:
  - screenRelativeHeight: 0.054972637
    fadeTransitionWidth: 0
    renderers:
    - renderer: {fileID: 23000010671952770}
  - screenRelativeHeight: 0.017374534
    fadeTransitionWidth: 0
    renderers:
    - renderer: {fileID: 23000011101327166}
  m_Enabled: 1
